{
  "test": {
    "retrieve": { "responseJSON": { "type": "String" }, "requestParams": null },
    "list": { "responseJSON": { "type": "String" }, "requestParams": null }
  },
  "user": {
    "retrieve": {
      "responseJSON": {
        "id": { "notNull": true, "type": "ID" },
        "login": { "notNull": true, "type": "String" },
        "typeId": { "type": "ID", "notNull": true },
        "languageId": { "type": "ID", "notNull": true },
        "description": { "type": "String" },
        "enabled": { "notNull": true, "type": "Boolean" }
      },
      "requestParams": { "id": { "isRequired": true, "type": "ID" } }
    },
    "list": {
      "responseJSON": {
        "items": [
          {
            "id": { "notNull": true, "type": "ID" },
            "login": { "notNull": true, "type": "String" },
            "typeId": { "type": "ID", "notNull": true },
            "languageId": { "type": "ID", "notNull": true },
            "description": { "type": "String" },
            "enabled": { "notNull": true, "type": "Boolean" }
          }
        ],
        "itemsTotalCount": { "notNull": true, "type": "Int" }
      },
      "requestParams": {
        "orderBy": {
          "type": "Enum",
          "values": ["LOGIN"],
          "defaultValue": "LOGIN"
        },
        "orderAsc": { "type": "Boolean", "defaultValue": true }
      }
    },
    "add": {
      "responseJSON": {
        "id": { "notNull": true, "type": "ID" },
        "login": { "notNull": true, "type": "String" },
        "typeId": { "type": "ID", "notNull": true },
        "languageId": { "type": "ID", "notNull": true },
        "description": { "type": "String" },
        "enabled": { "notNull": true, "type": "Boolean" }
      },
      "requestParams": {
        "login": { "isRequired": true, "type": "String" },
        "password": { "isRequired": true, "type": "String" },
        "typeId": { "isRequired": true, "type": "String" },
        "languageId": { "isRequired": true, "type": "ID" },
        "description": { "type": "String" },
        "enabled": { "type": "Boolean", "defaultValue": true }
      }
    },
    "edit": {
      "responseJSON": {
        "id": { "notNull": true, "type": "ID" },
        "login": { "notNull": true, "type": "String" },
        "typeId": { "type": "ID", "notNull": true },
        "languageId": { "type": "ID", "notNull": true },
        "description": { "type": "String" },
        "enabled": { "notNull": true, "type": "Boolean" }
      },
      "requestParams": {
        "id": { "isRequired": true, "type": "ID" },
        "password": { "type": "String" },
        "languageId": { "type": "ID" },
        "enabled": { "type": "Boolean" },
        "login": { "type": "String" },
        "description": { "type": "String" }
      }
    },
    "delete": {
      "responseJSON": {
        "id": { "notNull": true, "type": "ID" },
        "login": { "notNull": true, "type": "String" },
        "typeId": { "type": "ID", "notNull": true },
        "languageId": { "type": "ID", "notNull": true },
        "description": { "type": "String" },
        "enabled": { "notNull": true, "type": "Boolean" }
      },
      "requestParams": { "id": { "isRequired": true, "type": "ID" } }
    }
  },
  "auth": {
    "login": {
      "responseJSON": {
        "id": { "notNull": true, "type": "ID" },
        "login": { "notNull": true, "type": "String" },
        "typeId": { "type": "ID", "notNull": true },
        "languageId": { "type": "ID", "notNull": true },
        "description": { "type": "String" },
        "enabled": { "notNull": true, "type": "Boolean" }
      },
      "requestParams": {
        "login": { "isRequired": true, "type": "String" },
        "password": { "isRequired": true, "type": "String" }
      }
    },
    "logout": {
      "responseJSON": { "notNull": true, "type": "Boolean" },
      "requestParams": null
    },
    "whoAmI": {
      "responseJSON": {
        "id": { "notNull": true, "type": "ID" },
        "login": { "notNull": true, "type": "String" },
        "typeId": { "type": "ID", "notNull": true },
        "languageId": { "type": "ID", "notNull": true },
        "description": { "type": "String" },
        "enabled": { "notNull": true, "type": "Boolean" }
      },
      "requestParams": null
    }
  }
}
